


G
	F1
		T1
			R1 *			h p
			R2 *
		T2
			R3 *
			R4 *
	F1
		T3
			R5 *
			R6 *
	



		lines.forEach(line -> {
			
			String[] fields = line.split("\\s");
			
			String currentPlayer = fields[0];
			String hits = fields[1];
			
			if(Objects.isNull(previousPlayer)) {
				firstPlayer = currentPlayer;
			}
			
				
			System.out.println(line);
		});
		



	void validateRollCount() {
		Long rollCount = Stream.of(firstRoll, secondRoll, extraRoll).filter(Objects::nonNull).count();
	}
